-------------------------------------------------------------------------------
Test set: com.example.demo.ZaloToolBackend1ApplicationTests
-------------------------------------------------------------------------------
Tests run: 1, Failures: 0, Errors: 0, Skipped: 0, Time elapsed: 2.233 s - in com.example.demo.ZaloToolBackend1ApplicationTests
